[
  {
    "id": 1,
    "id_category": 21,
    "name": "Вёшенки",
    "desc": "Вёшенка — род грибов семейства Вёшенковые, или Плевротовые. Развивается на субстрате из неживых растительных остатков, из которого способен усваивать целлюлозу и лигнин. В природе растёт на стволах засохших деревьев.",
    "calories": 35,
    "proteins": 3.3,
    "fats": 0.4,
    "carbohydrates": 6.4
  },
  {
    "id": 2,
    "id_category": 21,
    "name": "Опята",
    "desc": "Съедобный пластинчатый гриб. Шляпка опенка неяркого желто-коричневого или светло-желтого цвета. В зависимости от возраста гриба шляпка изменяет форму: вначале она выпукла, а затем становится более плоской с небольшой выпуклостью посредине. На шляпке мелкие темные чешуйки.",
    "calories": 21,
    "proteins": 2.3,
    "fats": 1.2,
    "carbohydrates": 0.6
  },
  {
    "id": 3,
    "id_category": 21,
    "name": "Шампиньоны",
    "desc": "Грибы, которые произрастают круглый год и могут подаваться к столу вне зависимости от сезона. Отличаются тонким вкусом, напоминающим белые грибы.",
    "calories": 21,
    "proteins": 3.1,
    "fats": 0.3,
    "carbohydrates": 3.3
  }
]