[
  {
    "id": 1,
    "id_category": 25,
    "name": "Горчица",
    "desc": "Приправа из цельных и молотых семян одноимённого растения с добавлением воды, уксуса и других ингредиентов.",
    "calories": 0,
    "proteins": 0,
    "fats": 0,
    "carbohydrates": 0
  },
  {
    "id": 2,
    "id_category": 25,
    "name": "Корица",
    "desc": "Высушенная кора некоторых тропических деревьев из семейства лавровых. Пряность.",
    "calories": 265,
    "proteins": 3.8,
    "fats": 3.2,
    "carbohydrates": 79.9
  },
  {
    "id": 3,
    "id_category": 25,
    "name": "Имбирь (корень)",
    "desc": "Пряность, которую готовят из корневища тропического травянистого растения. В молотом виде — мучнистый, серовато–желтоватый порошок, жгучий на вкус. Возделывается как огородное растение. Имеет чрезвычайно широкий аспект кулинарного применения.",
    "calories": 100,
    "proteins": 2,
    "fats": 1,
    "carbohydrates": 18
  },
  {
    "id": 4,
    "id_category": 25,
    "name": "Майонез легкий",
    "desc": "Холодный соус, приготовленный из растительного масла, яичного желтка, уксуса и/или лимонного сока, сахара, поваренной соли, иногда горчицы и других приправ",
    "calories": 327,
    "proteins": 0.9,
    "fats": 33.1,
    "carbohydrates": 8.2
  },
  {
    "id": 5,
    "id_category": 25,
    "name": "Паприка",
    "desc": "Приправа, смолотая из сушеного сладкого мясистого перца Capsicum annum красных сортов. В Венгрии в настоящее время производят семь сортов порошков паприки, причем острота приправы зависит от способа изготовления, при котором большую роль играют капсаицин, придающий остроту, а также красящие вещества капсантин и каротин.",
    "calories": 290,
    "proteins": 14.8,
    "fats": 12.9,
    "carbohydrates": 55.8
  },
  {
    "id": 6,
    "id_category": 25,
    "name": "Сахар песок",
    "desc": "Вещество, являющееся чистым углеводом. Встречается в природе во многих растениях, составляя в некоторых из них преобладающую часть (сахарный тростник, сахарная свекла).",
    "calories": 393,
    "proteins": 0,
    "fats": 0,
    "carbohydrates": 100
  },
  {
    "id": 7,
    "id_category": 25,
    "name": "Соль",
    "desc": "Приправа - минеральное вещество, встречаемое в природе.",
    "calories": 0,
    "proteins": 0,
    "fats": 0,
    "carbohydrates": 0
  }
]