[
  {
    "id": 1,
    "id_category": 17,
    "name": "Яйцо гусиное",
    "desc": "Гусиные яйца отличаются от куриных не только большими размерами – они примерно в 4 раза крупнее, но и прочной скорлупой, которая имеет известняково-белый оттенок.От куриных яиц гусиные отличаются также более насыщенным вкусом. А вот утиным яйцам они значительно уступают по таким параметрам как жирность и ароматность.В силу специфического привкуса и запаха гусиные яйца используют в кулинарии с осторожностью.",
    "calories": 185,
    "proteins": 13.9,
    "fats": 13.3,
    "carbohydrates": 1.3
  },
  {
    "id": 2,
    "id_category": 17,
    "name": "Яйцо индюшиное",
    "desc": "Яйца весят около 80 граммов, у них кремово-белая скорлупа, причем, чем моложе несушка, тем светлее и мельче её яйца.Они вкуснее и полезнее куриных (разве что холестерина в них больше), однако при этом, к сожалению, довольно редки: индеек выращивают в основном из-за мяса.",
    "calories": 171,
    "proteins": 13.7,
    "fats": 11.9,
    "carbohydrates": 1.2
  },
  {
    "id": 3,
    "id_category": 17,
    "name": "Яйцо куриное",
    "desc": "Цельное, свежее, сорт отборный",
    "calories": 148,
    "proteins": 12.6,
    "fats": 9.9,
    "carbohydrates": 0.8
  },
  {
    "id": 4,
    "id_category": 17,
    "name": "Яйцо перепелиное",
    "desc": "Перепелиные яйца – это яйца перепелов. Они имеют пятнистую окраску с коричневыми пятнышками. Цвет и интенсивность окраса яйца никак не сказывается на его вкусовых качествах. Цвет желтка бывает бледным или ярким, его окрас зависит от корма, которым кормили перепелов. Цвет желтка никак не влияет на его вкус или полезность. Перепелиные яйца весят 10-12 г, скорлупа тонкая и хрупкая. Так как перепела не болеют сальмонеллезом, то сырые яйца не опасны.",
    "calories": 156,
    "proteins": 13,
    "fats": 11.1,
    "carbohydrates": 0.4
  },
  {
    "id": 5,
    "id_category": 17,
    "name": "Яйцо утиное",
    "desc": "Утиные яйца бывают разного цвета – от белого до зелёно-голубого. Они немного больше куриных (их вес около 90 граммов). У них сильный запах и яркий вкус, но это привлекает далеко не всех: многие предпочитают более тонкий и изысканный вкус куриных яиц. Однако в салате они всегда хорошо сочетаются с остальными ингредиентами.",
    "calories": 186,
    "proteins": 12.8,
    "fats": 13.8,
    "carbohydrates": 1.5
  }
]