[
  {
    "id": 1,
    "id_category": 16,
    "name": "Горбуша",
    "desc": "Горбу́ша — вид анадромных рыб из семейства лососёвых. Наименьший по размерам и наиболее распространённый представитель рода тихоокеанских лососей.",
    "calories": 89,
    "proteins": 17.9,
    "fats": 2.2,
    "carbohydrates": 0
  },
  {
    "id": 2,
    "id_category": 16,
    "name": "Камбала",
    "desc": "Рыба прибрежных (мелководных) морских районов, обладающая очень нежным и вкусным мясом. В западноевропейской ресторанной кулинарии фигурирует всегда под именем «сель». Камбала употребляется в основном для жарения в растительном масле. В отварном виде рыба теряет во вкусе. Для сохранения наилучшего вкуса камбалы необходимо соблюдать правила резделки этой рыбы: обрезать голову и брюшную часть так, чтобы границы обреза приходились по костям, снять верхнюю кожу с обеих сторон камбалы, обрезать круговые плавники так, чтобы обрез оставлял бы совершенно бескостное мясо. Перед обжариванием камбалу необходимо панировать в муке, лучше — в рисовой, смешанной с небольшим количеством соли. Обжаривание ведется по 7—8 минут с каждой стороны до появления золотистой корочки. В качестве добавочной пряности, оттеняющей вкус камбалы, употребляют порошок тимьяна, которым посыпают камбалу во время жарения, как солью.",
    "calories": 80,
    "proteins": 17.7,
    "fats": 0.9,
    "carbohydrates": 0
  },
  {
    "id": 3,
    "id_category": 16,
    "name": "Карп",
    "desc": "Прудовая рыба, имеющая нежное, неплотное мясо, часто сохраняющее запах тины. Поэтому наилучшим видом приготовления карпа является тушение или запекание в духовке на сковороде под крышкой вместе с картофелем, луком, морковью и пряностями (лавровый лист, перец, укроп). Такой вид приготовления лишает мясо карпа водянистости и побочных запахов.",
    "calories": 127,
    "proteins": 17.8,
    "fats": 5.6,
    "carbohydrates": 0
  },
  {
    "id": 4,
    "id_category": 16,
    "name": "Креветки",
    "desc": "Ракообразные из отряда десятиногих (Decapoda). Широко распространены по морям всего мира, многие виды освоили пресные воды. Размер взрослых особей разных представителей варьирует от 2 до 30 см. В морях Дальнего Востока России фауна креветок насчитывает более 100 видов. Многие представители этой группы — объекты промышленного лова. Обычно они продаются рассортированными просто по размерам. Чем крупнее, тем они дороже. К числу небольших, всего 3-7 см в длину, и недорогих относятся глубоководные креветки, которые, большей частью, варятся свежевыловленными и замораживаются.",
    "calories": 144,
    "proteins": 27.6,
    "fats": 2.3,
    "carbohydrates": 1.2
  },
  {
    "id": 5,
    "id_category": 16,
    "name": "Мидии",
    "desc": "Черноморская мидия (Mytilus galloprovincialis) — моллюск из семейства ракушниковых. Двустворчатый, чёрного цвета.",
    "calories": 26,
    "proteins": 2.2,
    "fats": 1.7,
    "carbohydrates": 0.4
  },
  {
    "id": 6,
    "id_category": 16,
    "name": "Минтай",
    "desc": "Самая многочисленная тресковая рыба в Тихом океане, распространенная от Берингова моря до полуострова Корея. В Японии минтая заготовляют в соленом, сушеном и сушено-вяленом виде. Используются мясо, икра, печень, плавники и хвосты. Мясо минтая, как и мясо многих тресковых, бедное жиром и содержащее много воды, используется для приготовления паст. Икра, составляющая до 11,5% веса рыбы, очень вкусна.",
    "calories": 71,
    "proteins": 15,
    "fats": 0.9,
    "carbohydrates": 0
  },
  {
    "id": 7,
    "id_category": 16,
    "name": "Налим",
    "desc": "Единственная исключительно пресноводная рыба отряда трескообразных",
    "calories": 90,
    "proteins": 19.3,
    "fats": 0.8,
    "carbohydrates": 0
  },
  {
    "id": 8,
    "id_category": 16,
    "name": "Палтус",
    "desc": "",
    "calories": 188,
    "proteins": 13.4,
    "fats": 14.7,
    "carbohydrates": 0
  },
  {
    "id": 9,
    "id_category": 16,
    "name": "Осетр",
    "desc": "Осетр это рыба, относящаяся к семейству осетровых. Осетр – проходная и пресноводная рыба, растет в длину до трех метров, есть экземпляры, которые достигают двухсот килограмм.",
    "calories": 130,
    "proteins": 20,
    "fats": 5,
    "carbohydrates": 0
  },
  {
    "id": 10,
    "id_category": 16,
    "name": "Осьминог",
    "desc": "Осьминог является моллюском, у которого небольшое тело и 8 длинных щупалец с присосками. В среднем размер отдельной особи может составлять до 50 см, а вес при этом достигает до 3-х кг. Обитает, в основном, в тропических и субтропических океанах.",
    "calories": 82,
    "proteins": 14.9,
    "fats": 1,
    "carbohydrates": 2.2
  },
  {
    "id": 11,
    "id_category": 16,
    "name": "Окунь пресноводный",
    "desc": "Рыба рода пресноводных окуней семейства окунёвых отряда окунеобразных",
    "calories": 97,
    "proteins": 18.6,
    "fats": 1.8,
    "carbohydrates": 0
  },
  {
    "id": 12,
    "id_category": 16,
    "name": "Рак",
    "desc": "",
    "calories": 97,
    "proteins": 20.3,
    "fats": 0.6,
    "carbohydrates": 1.3
  },
  {
    "id": 13,
    "id_category": 16,
    "name": "Семга (Лосось)",
    "desc": "Вид лососёвых рыб из рода лососей. Очень богата жирными кислотами Омега-3 и жирорастворимыми витаминами А и D. К тому же, она содержит большое количество водорастворимых витаминов В12 и пиридоксина.",
    "calories": 207,
    "proteins": 22.2,
    "fats": 12.4,
    "carbohydrates": 0
  },
  {
    "id": 14,
    "id_category": 16,
    "name": "Судак",
    "desc": "Род рыб семейства окуневых. В водах России два вида — обыкновенный судак и волжский судак (бёрш). На Дону и на побережье Азовского моря распространено местное название судака — сула. Обладает нежным, с отличными вкусовыми качествами, нежирным (содержание жира менее 1%) мясом, пригодным для использования в свежем, охлажденном и замороженном виде, а также для изготовления консервов.",
    "calories": 119,
    "proteins": 24.5,
    "fats": 0,
    "carbohydrates": 1.5
  },
  {
    "id": 15,
    "id_category": 16,
    "name": "Скумбрия атлантическая",
    "desc": "Самый распространенный в пищевом потреблении вид скумбрии - атлантическая - лат. Scomber Scombrus. Очень красивая, полнотелая рыба. Имеет веретенообразное тело, покрытое мелкой циклоидной чешуей. Спина сине- зеленая с множеством черных изогнутых полос. Нижняя часть тела и брюхо белые. Плавательного пузыря нет.",
    "calories": 205,
    "proteins": 18.6,
    "fats": 13.9,
    "carbohydrates": 0
  },
  {
    "id": 16,
    "id_category": 16,
    "name": "Треска",
    "desc": "Рыба семейства тресковых. Обитает в северной части бассейна Атлантического океана, Белом море, в северной части Тихого океана. Мясо белое плотное нежное у свежей и хорошо замороженной, не оттаявшей рыбы, и суховатым, распадающимся на пластины у рыбы, плохо замороженной, подвергавшейся разморожению или не совсем свежей, старой. Треска — отварная или тушеная — национальное блюдо норвежцев и исландцев.",
    "calories": 82,
    "proteins": 17.8,
    "fats": 0.7,
    "carbohydrates": 0
  },
  {
    "id": 17,
    "id_category": 16,
    "name": "Тунец",
    "desc": "Род рыб из семейства скумбриевых.",
    "calories": 109,
    "proteins": 23.4,
    "fats": 1,
    "carbohydrates": 0
  },
  {
    "id": 18,
    "id_category": 16,
    "name": "Устрицы",
    "desc": "Семейство морских двустворчатых моллюсков. Обладают очень характерной асимметричной раковиной неправильной формы. Одни из самых популярных среди промысловых групп морских беспозвоночных.",
    "calories": 133,
    "proteins": 8,
    "fats": 7.4,
    "carbohydrates": 9.8
  },
  {
    "id": 19,
    "id_category": 16,
    "name": "Форель",
    "desc": "Общее название нескольких пресноводных видов и форм рыб, относящихся к семейству лососёвых.",
    "calories": 148,
    "proteins": 20.8,
    "fats": 6.6,
    "carbohydrates": 0
  },
  {
    "id": 20,
    "id_category": 16,
    "name": "Чавыча",
    "desc": "Широко распространённый вид анадромных рыб семейства лососёвых. Самый крупный из тихоокеанских лососей.",
    "calories": 179,
    "proteins": 19.9,
    "fats": 10.4,
    "carbohydrates": 0
  }
]