[
  {
    "id": 1,
    "id_category": 4,
    "name": "Жим штанги из-за головы стоя или сидя",
    "desc": "Выполняется как стоя, так и сидя. Возможно выполнение в машине Смита. Т.к. штанга опускается за голову и хват шире плеч, то кроме передней дельты активно работает средняя.",
    "images": [
      {
        "id": 1,
        "url": "file:///android_asset/shoulders/shoulders1.png"
      }
    ],
    "steps": [
      {
        "id": 1,
        "desc": "Возьмите штангу в руки хватом чуть шире плеч."
      },
      {
        "id": 2,
        "desc": "Примите исходное положение: штанга лежит на плечах. Спина прямая."
      },
      {
        "id": 3,
        "desc": "На выдохе – поднимите медленно штангу вверх, полностью выпрямив руки."
      },
      {
        "id": 4,
        "desc": "На вдохе – опустите штангу за голову примерно до уровня глаз."
      },
      {
        "id": 5,
        "desc": "Повторите упражнение необходимое количество раз."
      }
    ],
    "advices": [
      {
        "id": 1,
        "desc": "Сохраняйте туловище неподвижным, а спину прямой."
      },
      {
        "id": 2,
        "desc": "Штанга всегда должна быть на весу. Не кладите её на плечи."
      },
      {
        "id": 3,
        "desc": "Вес штанги нужно подбирать такой, чтобы можно было выполнить минимум 8 повторений."
      },
      {
        "id": 4,
        "desc": "Упражнение лучше выполнять возле стойки – так брать снаряд удобнее. Идеально расположение штанги чуть ниже уровня плеч – чтобы можно было зайти под штангу."
      },
      {
        "id": 5,
        "desc": "Ширина хвата для правильного выполнения: предплечья в нижней точке параллельны друг другу (строго вертикальны)."
      },
      {
        "id": 6,
        "desc": "Удобней и безопасней выполнять упражнение в машине Смита (и стоя и сидя)."
      },
      {
        "id": 7,
        "desc": "При выполнении жима за голову сидя опирайтесь на спинку."
      }
    ]
  },
  {
    "id": 2,
    "id_category": 4,
    "name": "Армейский жим (жим штанги стоя/сидя)",
    "desc": "Армейский жим - одно из самых эффективных упражнений для мышц плечевого пояса. Главная нагрузка приходится на передние и средние пучки дельт. Очень важно выполнять жим штанги стоя правильно, иначе эффективность резко снижается.\nЖим можно выполнять как стоя, так и сидя. Как со штангой, так и с гантелями.",
    "images": [
      {
        "id": 1,
        "url": "file:///android_asset/shoulders/shoulders2.png"
      },
      {
        "id": 2,
        "url": "file:///android_asset/shoulders/shoulders3.png"
      }
    ],
    "steps": [
      {
        "id": 1,
        "desc": "Возьмитесь за гриф немного шире плеч хватом сверху. Поднимите штангу на грудь."
      },
      {
        "id": 2,
        "desc": "Исходное положение: штанга находится на груди, локти немного выдвинуты вперед (так, чтобы ладони смотрели точно вверх), спину держите прямой. Ноги на ширине плеч, немного согнуты в коленях."
      },
      {
        "id": 3,
        "desc": "На выдохе – плавно выжмите штангу вверх, пока не зафиксируете её на прямых руках."
      },
      {
        "id": 4,
        "desc": "На вдохе - опустите штангу обратно на грудь."
      },
      {
        "id": 5,
        "desc": "Выполните необходимое количество повторов."
      }
    ],
    "advices": [
      {
        "id": 1,
        "desc": "Если при выполнении армейского жима ваши руки начинают «гулять» —снизте рабочий вес."
      },
      {
        "id": 2,
        "desc": "При выполнении жима штанги стоя следите, чтобы таз был немного оттопырен (немного за пятками). Это позволит избежать излишний прогиб в пояснице. Если будете сильно подавать таз вперёд или прогибаться, то можете травмировать поясницу."
      },
      {
        "id": 3,
        "desc": "Штангу жмите так, чтобы в верхней точке гриф был прямо над головой, можно слегка сзади."
      },
      {
        "id": 4,
        "desc": "В нижней точке касайтесь грифом верхнюю часть груди. Паузу делать НЕ нужно."
      },
      {
        "id": 5,
        "desc": "В нижней точке локти должны быть слегка выведены вперёд - немного впереди грифа."
      },
      {
        "id": 6,
        "desc": "Жать стараться по прямой траектории. Чтобы не обводить грифом голову, просто отводите её немного назад."
      }
    ]
  },
  {
    "id": 3,
    "id_category": 4,
    "name": "Подъемы гантелей через стороны стоя",
    "desc": "Классическое упражнение для развития дельт – мышц, окружающих плечевые суставы. Больше всего в подъеме гантелей через стороны работают средние дельты. Вы можете выполнять разведение гантелей в стороны одной рукой – попеременно (оперевшись боком на наклонную скамью или удерживаясь свободной рукой за опору).",
    "images": [
      {
        "id": 1,
        "url": "file:///android_asset/shoulders/shoulders4.png"
      },
      {
        "id": 2,
        "url": "file:///android_asset/shoulders/shoulders5.png"
      }
    ],
    "steps": [
      {
        "id": 1,
        "desc": "Возьмите гантели с установленным необходимым Вам весом."
      },
      {
        "id": 2,
        "desc": "Исходное положение: встаньте прямо, ноги немного уже или на ширине плеч. Руки вдоль тела, немного согнуты в локтях, ладони внутрь."
      },
      {
        "id": 3,
        "desc": "На выдохе - сохраняя тело прямым, поднимайте гантели в стороны. При этом немного поворачивайте руки с гантелями (представьте, что вы держите кружки с водой и выливаете из них воду). Поднимайте руки немного уровня плеч."
      },
      {
        "id": 4,
        "desc": "На вдохе - медленно верните руки в исходное положение."
      },
      {
        "id": 5,
        "desc": "Сделайте необходимое количество повторений."
      }
    ],
    "advices": [
      {
        "id": 1,
        "desc": "Следите за тем, чтобы поднимать гантели чётко в стороны. Если будете выносить руки вперёд, то перенесете нагрузку на передние дельты."
      },
      {
        "id": 2,
        "desc": "Не опускайте локти! В верхней точке упражнения они должны быть обращены назад, а не вниз и находиться на одном уровне с кистями."
      },
      {
        "id": 3,
        "desc": "Поднимать гантели следует до уровня плеч, можно немного выше. Сильное поднимание рук включает в работу трапеции."
      },
      {
        "id": 4,
        "desc": "При разведении гантелей в стороны спину держите прямой, а плечи расправлеными."
      },
      {
        "id": 5,
        "desc": "Не поднимайте плечи вверх во время выполнения подъемы гантелей – так нагрузка ляжет на трапецию, а не на плечи."
      },
      {
        "id": 6,
        "desc": "Выполняйте упражнение плавно, не раскачивайтесь и не пытайтесь «закинуть» гантели вверх."
      }
    ]
  },
  {
    "id": 4,
    "id_category": 4,
    "name": "Жим гантелей сидя",
    "desc": "Жим гантелей сидя является базовым упражнением. Акцентирует нагрузку на средние и боковые пучки плеч, также в работе задействованы трицепсы. Упражнение удобней делать сидя, но можно и стоя. Если делаете сидя, то угол наклона спинки на скамье должен быть от 80-90 градусов.",
    "images": [
      {
        "id": 1,
        "url": "file:///android_asset/shoulders/shoulders6.png"
      },
      {
        "id": 2,
        "url": "file:///android_asset/shoulders/shoulders7.png"
      }
    ],
    "steps": [
      {
        "id": 1,
        "desc": "Сядьте на отрегулированную силовую скамью, удерживая гантели в руках."
      },
      {
        "id": 2,
        "desc": "Исходное положение – спина и поясница прижаты к спинке скамьи, поднимите гантели на уровень глаз. Разверните локти в стороны, предплечья вертикальны, ладони смотрят вперед, стопы уперты в пол."
      },
      {
        "id": 3,
        "desc": "На выдохе - выжимайте гантели к верхней точке, немного сближая их. Задержитесь в верхней точке на пару секунд."
      },
      {
        "id": 4,
        "desc": "На вдохе - вернитесь в исходное положение."
      },
      {
        "id": 5,
        "desc": "Повторите жим гантелей необходимое число раз."
      }
    ],
    "advices": [
      {
        "id": 1,
        "desc": "Для того чтобы акцентировать нагрузку на передний пучок дельт, необходимо к нижей точке плавно разворачивать руки ладонями друг к другу."
      },
      {
        "id": 2,
        "desc": "Делаем паузу в верхней точке, но ни в коме случаи не делаем паузу внизу. Так как мышцы рефлекторно стремятся сильнее сократиться в ответ на растяжение. При паузе внизу эффект сократится"
      },
      {
        "id": 3,
        "desc": "Опускайте гантели как можно ниже, касаясь ими плеч, а выжимайте до конца - чем больше амплитуда жима, тем лучше."
      },
      {
        "id": 4,
        "desc": "Для новичков можно делать жим руками поочередно."
      }
    ]
  },
  {
    "id": 5,
    "id_category": 4,
    "name": "Тяга к подбородку с гантелями",
    "desc": "Тяга гантелей к подбородку позволяет развить дельтовидные мышцы плеч и трапеции. Это делает плечевой пояс и верхнюю часть спины крепче, а фигуру рельефнее и гармоничнее. Такая протяжка широко используется в бодибилдинге наряду с армейским жимом и шрагами. Проработать средние пучки дельт также можно подъемами рук через стороны, но тяга к подбородку считается более эффективным упражнением.",
    "images": [
      {
        "id": 1,
        "url": "file:///android_asset/shoulders/shoulders8.png"
      },
      {
        "id": 2,
        "url": "file:///android_asset/shoulders/shoulders9.png"
      },
      {
        "id": 3,
        "url": "file:///android_asset/shoulders/shoulders10.png"
      }
    ],
    "steps": [
      {
        "id": 1,
        "desc": "Примите исходное положение — согните руки в локтях и положите их на переднюю часть бедра. Спину постарайтесь не сгибать и сохранить её положение, не двигая корпусом."
      },
      {
        "id": 2,
        "desc": "На выдохе подтяните снаряды к подбородку. Вы всё сделаете правильно, если в верхней точке локти будут направлены максимально вверх, а их конечная точка будет расположена выше условной линии предплечий."
      },
      {
        "id": 3,
        "desc": "До того, как снаряды приблизятся к подбородку, старайтесь следить за траекторией движения, не позволяя им отклоняться от корпуса. Речь идёт не о касании, а о приближённости к лицу."
      },
      {
        "id": 4,
        "desc": "Сделайте небольшую паузу, после чего выпустите воздух из лёгких и займите исходное положение."
      },
      {
        "id": 5,
        "desc": "Выполняйте упражнение в три подхода."
      },
      {
        "id": 6,
        "desc": "Как вариант можете изменять руки, работая с большими весами."
      }
    ],
    "advices": [
      {
        "id": 1,
        "desc": "Очень важно правильно подобрать рабочий вес. Если атлет, недостаточно подготовленный физически, начнёт использовать чрезмерные веса, то это может стать главной причиной нарушения техники и, как следствие, получения травмы. Не допускайте резких движений, избегайте читинга! Тяга гантелей к подбородкуПри малейших тревожных сигналах организма старайтесь использовать боковые подъёмы."
      },
      {
        "id": 2,
        "desc": "Постоянно следите за тем, чтобы корпус не двигался во время выполнения упражнения. Поборите в себе потребность раскачиваться для облегчения тяги — это снизит эффективность упражнения. Если торс будет сложно контролировать, то, скорее всего, вы переборщили с весами."
      },
      {
        "id": 3,
        "desc": "Не стремитесь как можно быстрее увеличить веса до максимума. Слишком быстрый переход к ним однозначно приведёт к травме!"
      },
      {
        "id": 4,
        "desc": "Старайтесь сохранять расстояние между гантелями для того, чтобы не уменьшать амплитуду движения и сохранить нагрузку на целевые мышцы, не допуская её смещения на трапецию."
      },
      {
        "id": 5,
        "desc": "Следите за положением локтей. Они не должны быть направлены вниз. Оптимальное положение — вверх с разведением по сторонам. Старайтесь не двигать в ходе выполнения упражнения плечами."
      }
    ]
  },
  {
    "id": 6,
    "id_category": 4,
    "name": "Разведение гантелей стоя в наклоне",
    "desc": "Обычно задняя дельтовидная мышца является самой отстающей частью мышц плеча. Это упражнение отлично подойдет для развития задних, а также средних дельт.",
    "images": [
      {
        "id": 1,
        "url": "file:///android_asset/shoulders/shoulders11.png"
      },
      {
        "id": 2,
        "url": "file:///android_asset/shoulders/shoulders12.png"
      }
    ],
    "steps": [
      {
        "id": 1,
        "desc": "Исходное положение – наклонитесь вперед практически параллельно полу. Можете даже упереться лбом в подходящую опору (подойдет угол скамьи). Руки опущены вниз, слегка согнуты в локтях, ладони обращены друг к другу."
      },
      {
        "id": 2,
        "desc": "На выдохе – оставляя корпус тела неподвижным, разводите гантели в стороны, сохраняя небольшой изгиб в локтевых суставах. Движение выполняйте немного не доводя руки до параллели к полу."
      },
      {
        "id": 3,
        "desc": "На вдохе – верните руки с гантелями по такой же дуге."
      },
      {
        "id": 4,
        "desc": "Выполните разведение гантелей необходимое число повторов."
      }
    ],
    "advices": [
      {
        "id": 1,
        "desc": "Не гонитесь за весом, сосредоточьтесь на технике упражнения и неподвижности корпуса тела."
      },
      {
        "id": 2,
        "desc": "Упражнение требует немалого усилия мышц-стабилизаторов, поэтому, сначала попробуйте упираться лбом или вообще делать упражнение лежа на силовой скамье."
      },
      {
        "id": 3,
        "desc": "При выполнении упражнения локти и плечи должны находится в одной плоскости. Необходимо следить за тем, чтобы локти всегда были согнуты в локтях (около 20 градусов), так нагрузка ложится на целевые мышцы."
      }
    ]
  },
  {
    "id": 7,
    "id_category": 4,
    "name": "Подъем гантелей перед собой",
    "desc": "Подъем гантелей перед собой - одно из самых доступных упражнений для тренировки передней части плечей. Для выполнения нужны только гантели – поэтому упражнение можно делать в домашних условиях. Отлично подойдет для увеличения передних дельт. Может выполняться с двумя гантелями (поднимаются как поочередно, так и одновременно), с одной гантелей, с блином от штанги, со штангой и в блочном тренажере.",
    "images": [
      {
        "id": 1,
        "url": "file:///android_asset/shoulders/shoulders13.png"
      },
      {
        "id": 2,
        "url": "file:///android_asset/shoulders/shoulders14.png"
      },
      {
        "id": 3,
        "url": "file:///android_asset/shoulders/shoulders15.png"
      }
    ],
    "steps": [
      {
        "id": 1,
        "desc": "Исходное положение: возьмите гантели хватом сверху, ладони поверните друг к другу, встаньте прямо."
      },
      {
        "id": 2,
        "desc": "На выдохе – поднимите руки перед грудью усилием передней части плеча – до уровня подбородка или немного выше. Положение локтя зафиксируйте – не сгибайте его во время движения."
      },
      {
        "id": 3,
        "desc": "На вдохе – вернитесь в исходное положение."
      },
      {
        "id": 4,
        "desc": "Выполните подъем нужное число повторений."
      }
    ],
    "advices": [
      {
        "id": 1,
        "desc": "Если хотите задействовать передние дельты максимально, берите одну гантель с большим весом и поднимайте её на 45 градусов выше лини плеч. Выше поднимать нет смысл – т.к. нагрузка смещается на трапециевидные мышцы."
      },
      {
        "id": 2,
        "desc": "Туловище во время подъема гантелей держите неподвижным, если не можете поднимать без читинга, то уменьшите вес гантелей. Читинг – только для опытных спортсменов."
      },
      {
        "id": 3,
        "desc": "Во время упражнения руку в локте немного сгибайте."
      }
    ]
  },
  {
    "id": 8,
    "id_category": 4,
    "name": "Жим гантелей стоя",
    "desc": "Жим гантелей стоя относится к базовому типу упражнений. Основная нагрузка направленна переднюю часть дельт. Преимущество жима гантелей в том, что их можно разворачивать в верхней и нижней точке упражнения для большей эффективности",
    "images": [
      {
        "id": 1,
        "url": "file:///android_asset/shoulders/shoulders16.png"
      },
      {
        "id": 2,
        "url": "file:///android_asset/shoulders/shoulders17.png"
      }
    ],
    "steps": [
      {
        "id": 1,
        "desc": "Исходное положение – поставьте ноги на ширине плеч и возьмите в руки гантели. Держите спину ровно. Поднимите гантели до уровня глаз, согнув локти под углом в 90 градусов."
      },
      {
        "id": 2,
        "desc": "На выдохе – сделайте жим гантелей над головой, немного сводя, их друг к другу."
      },
      {
        "id": 3,
        "desc": "На вдохе – возвратитесь к исходному положению."
      },
      {
        "id": 4,
        "desc": "Сделайте необходимое количество повторов."
      }
    ],
    "advices": [
      {
        "id": 1,
        "desc": "Задержку нужно делать только в верхней точке упражнения. Если вы сделаете паузу внизу, то эффективность упражнения будет стремиться к нулю."
      },
      {
        "id": 2,
        "desc": "Опускать гантели необходимо так, чтобы они располагались на уровне ваших плеч. Знайте, что чем больше амплитуда, тем выше эффективность упражнения."
      },
      {
        "id": 3,
        "desc": "Жим с попеременной сменой рук будет отличным вариантом для начинающих спортсменов. Это позволит упростить технику выполнения."
      }
    ]
  }
]